-- Merging decision tree log ---
manifest
ADDED from /root/AndroidStudioProjects/Lab5/app/src/main/AndroidManifest.xml:2:1-24:12
	xmlns:android
		ADDED from /root/AndroidStudioProjects/Lab5/app/src/main/AndroidManifest.xml:2:11-69
	package
		ADDED from /root/AndroidStudioProjects/Lab5/app/src/main/AndroidManifest.xml:3:5-36
		INJECTED from /root/AndroidStudioProjects/Lab5/app/src/main/AndroidManifest.xml
		INJECTED from /root/AndroidStudioProjects/Lab5/app/src/main/AndroidManifest.xml
	android:versionName
		INJECTED from /root/AndroidStudioProjects/Lab5/app/src/main/AndroidManifest.xml
		INJECTED from /root/AndroidStudioProjects/Lab5/app/src/main/AndroidManifest.xml
	android:versionCode
		INJECTED from /root/AndroidStudioProjects/Lab5/app/src/main/AndroidManifest.xml
		INJECTED from /root/AndroidStudioProjects/Lab5/app/src/main/AndroidManifest.xml
application
ADDED from /root/AndroidStudioProjects/Lab5/app/src/main/AndroidManifest.xml:5:5-22:19
MERGED from [com.android.support:appcompat-v7:23.1.1] /root/AndroidStudioProjects/Lab5/app/build/intermediates/exploded-aar/com.android.support/appcompat-v7/23.1.1/AndroidManifest.xml:22:5-20
MERGED from [com.android.support:support-v4:23.1.1] /root/AndroidStudioProjects/Lab5/app/build/intermediates/exploded-aar/com.android.support/support-v4/23.1.1/AndroidManifest.xml:22:5-20
	android:supportsRtl
		ADDED from /root/AndroidStudioProjects/Lab5/app/src/main/AndroidManifest.xml:9:9-35
	android:label
		ADDED from /root/AndroidStudioProjects/Lab5/app/src/main/AndroidManifest.xml:8:9-41
	android:allowBackup
		ADDED from /root/AndroidStudioProjects/Lab5/app/src/main/AndroidManifest.xml:6:9-35
	android:icon
		ADDED from /root/AndroidStudioProjects/Lab5/app/src/main/AndroidManifest.xml:7:9-43
	android:theme
		ADDED from /root/AndroidStudioProjects/Lab5/app/src/main/AndroidManifest.xml:10:9-40
activity#com.example.root.lab5.Actividad2
ADDED from /root/AndroidStudioProjects/Lab5/app/src/main/AndroidManifest.xml:11:9-13:20
	android:name
		ADDED from /root/AndroidStudioProjects/Lab5/app/src/main/AndroidManifest.xml:11:19-45
activity#com.example.root.lab5.MainActivity
ADDED from /root/AndroidStudioProjects/Lab5/app/src/main/AndroidManifest.xml:14:9-50
	android:name
		ADDED from /root/AndroidStudioProjects/Lab5/app/src/main/AndroidManifest.xml:14:19-47
activity#com.example.root.lab5.Actividad4
ADDED from /root/AndroidStudioProjects/Lab5/app/src/main/AndroidManifest.xml:15:9-21:20
	android:name
		ADDED from /root/AndroidStudioProjects/Lab5/app/src/main/AndroidManifest.xml:15:19-45
intent-filter#android.intent.action.MAIN+android.intent.category.LAUNCHER
ADDED from /root/AndroidStudioProjects/Lab5/app/src/main/AndroidManifest.xml:16:13-20:29
action#android.intent.action.MAIN
ADDED from /root/AndroidStudioProjects/Lab5/app/src/main/AndroidManifest.xml:17:17-69
	android:name
		ADDED from /root/AndroidStudioProjects/Lab5/app/src/main/AndroidManifest.xml:17:25-66
category#android.intent.category.LAUNCHER
ADDED from /root/AndroidStudioProjects/Lab5/app/src/main/AndroidManifest.xml:19:17-77
	android:name
		ADDED from /root/AndroidStudioProjects/Lab5/app/src/main/AndroidManifest.xml:19:27-74
uses-sdk
INJECTED from /root/AndroidStudioProjects/Lab5/app/src/main/AndroidManifest.xml reason: use-sdk injection requested
MERGED from [com.android.support:appcompat-v7:23.1.1] /root/AndroidStudioProjects/Lab5/app/build/intermediates/exploded-aar/com.android.support/appcompat-v7/23.1.1/AndroidManifest.xml:20:5-43
MERGED from [com.android.support:support-v4:23.1.1] /root/AndroidStudioProjects/Lab5/app/build/intermediates/exploded-aar/com.android.support/support-v4/23.1.1/AndroidManifest.xml:20:5-43
	android:targetSdkVersion
		INJECTED from /root/AndroidStudioProjects/Lab5/app/src/main/AndroidManifest.xml
		INJECTED from /root/AndroidStudioProjects/Lab5/app/src/main/AndroidManifest.xml
	android:minSdkVersion
		INJECTED from /root/AndroidStudioProjects/Lab5/app/src/main/AndroidManifest.xml
		INJECTED from /root/AndroidStudioProjects/Lab5/app/src/main/AndroidManifest.xml
